# MagicaVoxel @ ephtracy

# material
mtllib CoffeeCup.mtl
usemtl palette

# normals
vn -1 0 0
vn 1 0 0
vn 0 0 1
vn 0 0 -1
vn 0 -1 0
vn 0 1 0

# texcoords
vt 0.00195313 0.5
vt 0.373047 0.5
vt 0.619141 0.5

# verts
v -4 6 4.5
v -4 6 -3.5
v -4 9 4.5
v -4 9 -3.5
v -4 11 4.5
v -4 11 -3.5
v -4 12 4.5
v -4 12 -3.5
v -3 0 3.5
v -3 0 -2.5
v -3 6 3.5
v -3 6 -2.5
v -3 9 3.5
v -3 9 -2.5
v -3 11 3.5
v -3 11 -2.5
v -3 12 3.5
v -3 12 -2.5
v -3 13 3.5
v -3 13 -2.5
v 3 0 3.5
v 3 0 -2.5
v 3 6 3.5
v 3 6 -2.5
v 3 9 3.5
v 3 9 -2.5
v 3 11 3.5
v 3 11 -2.5
v 3 12 3.5
v 3 12 -2.5
v 3 13 3.5
v 3 13 -2.5
v 4 6 4.5
v 4 6 -3.5
v 4 9 4.5
v 4 9 -3.5
v 4 11 4.5
v 4 11 -3.5
v 4 12 4.5
v 4 12 -3.5
v -4 6 4.5
v -4 9 4.5
v -4 11 4.5
v -4 12 4.5
v 4 6 4.5
v 4 9 4.5
v 4 11 4.5
v 4 12 4.5
v -3 0 3.5
v -3 6 3.5
v -3 9 3.5
v -3 11 3.5
v -3 12 3.5
v -3 13 3.5
v 3 0 3.5
v 3 6 3.5
v 3 9 3.5
v 3 11 3.5
v 3 12 3.5
v 3 13 3.5
v -3 0 -2.5
v -3 6 -2.5
v -3 9 -2.5
v -3 11 -2.5
v -3 12 -2.5
v -3 13 -2.5
v 3 0 -2.5
v 3 6 -2.5
v 3 9 -2.5
v 3 11 -2.5
v 3 12 -2.5
v 3 13 -2.5
v -4 6 -3.5
v -4 9 -3.5
v -4 11 -3.5
v -4 12 -3.5
v 4 6 -3.5
v 4 9 -3.5
v 4 11 -3.5
v 4 12 -3.5
v -3 0 3.5
v 3 0 3.5
v -3 0 -2.5
v 3 0 -2.5
v -4 6 4.5
v 4 6 4.5
v -3 6 3.5
v 3 6 3.5
v -3 6 -2.5
v 3 6 -2.5
v -4 6 -3.5
v 4 6 -3.5
v -4 11 4.5
v 4 11 4.5
v -3 11 3.5
v 3 11 3.5
v -3 11 -2.5
v 3 11 -2.5
v -4 11 -3.5
v 4 11 -3.5
v -4 9 4.5
v 4 9 4.5
v -3 9 3.5
v 3 9 3.5
v -3 9 -2.5
v 3 9 -2.5
v -4 9 -3.5
v 4 9 -3.5
v -4 12 4.5
v 4 12 4.5
v -3 12 3.5
v 3 12 3.5
v -3 12 -2.5
v 3 12 -2.5
v -4 12 -3.5
v 4 12 -3.5
v -3 13 3.5
v 3 13 3.5
v -3 13 -2.5
v 3 13 -2.5

# faces
f 3/2/1 2/2/1 1/2/1
f 4/2/1 2/2/1 3/2/1
f 7/1/1 6/1/1 5/1/1
f 8/1/1 6/1/1 7/1/1
f 11/3/1 10/3/1 9/3/1
f 12/3/1 10/3/1 11/3/1
f 15/3/1 14/3/1 13/3/1
f 16/3/1 14/3/1 15/3/1
f 19/1/1 18/1/1 17/1/1
f 20/1/1 18/1/1 19/1/1
f 21/3/2 22/3/2 23/3/2
f 23/3/2 22/3/2 24/3/2
f 25/3/2 26/3/2 27/3/2
f 27/3/2 26/3/2 28/3/2
f 29/1/2 30/1/2 31/1/2
f 31/1/2 30/1/2 32/1/2
f 33/2/2 34/2/2 35/2/2
f 35/2/2 34/2/2 36/2/2
f 37/1/2 38/1/2 39/1/2
f 39/1/2 38/1/2 40/1/2
f 45/2/3 42/2/3 41/2/3
f 46/2/3 42/2/3 45/2/3
f 47/1/3 44/1/3 43/1/3
f 48/1/3 44/1/3 47/1/3
f 55/3/3 50/3/3 49/3/3
f 56/3/3 50/3/3 55/3/3
f 57/3/3 52/3/3 51/3/3
f 58/3/3 52/3/3 57/3/3
f 59/1/3 54/1/3 53/1/3
f 60/1/3 54/1/3 59/1/3
f 61/3/4 62/3/4 67/3/4
f 67/3/4 62/3/4 68/3/4
f 63/3/4 64/3/4 69/3/4
f 69/3/4 64/3/4 70/3/4
f 65/1/4 66/1/4 71/1/4
f 71/1/4 66/1/4 72/1/4
f 73/2/4 74/2/4 77/2/4
f 77/2/4 74/2/4 78/2/4
f 75/1/4 76/1/4 79/1/4
f 79/1/4 76/1/4 80/1/4
f 83/3/5 82/3/5 81/3/5
f 84/3/5 82/3/5 83/3/5
f 87/2/5 86/2/5 85/2/5
f 88/2/5 86/2/5 87/2/5
f 89/2/5 87/2/5 85/2/5
f 90/2/5 86/2/5 88/2/5
f 91/2/5 89/2/5 85/2/5
f 91/2/5 90/2/5 89/2/5
f 92/2/5 86/2/5 90/2/5
f 92/2/5 90/2/5 91/2/5
f 95/1/5 94/1/5 93/1/5
f 96/1/5 94/1/5 95/1/5
f 97/1/5 95/1/5 93/1/5
f 98/1/5 94/1/5 96/1/5
f 99/1/5 97/1/5 93/1/5
f 99/1/5 98/1/5 97/1/5
f 100/1/5 94/1/5 98/1/5
f 100/1/5 98/1/5 99/1/5
f 101/2/6 102/2/6 103/2/6
f 103/2/6 102/2/6 104/2/6
f 101/2/6 103/2/6 105/2/6
f 104/2/6 102/2/6 106/2/6
f 101/2/6 105/2/6 107/2/6
f 105/2/6 106/2/6 107/2/6
f 106/2/6 102/2/6 108/2/6
f 107/2/6 106/2/6 108/2/6
f 109/1/6 110/1/6 111/1/6
f 111/1/6 110/1/6 112/1/6
f 109/1/6 111/1/6 113/1/6
f 112/1/6 110/1/6 114/1/6
f 109/1/6 113/1/6 115/1/6
f 113/1/6 114/1/6 115/1/6
f 114/1/6 110/1/6 116/1/6
f 115/1/6 114/1/6 116/1/6
f 117/1/6 118/1/6 119/1/6
f 119/1/6 118/1/6 120/1/6
