# MagicaVoxel @ ephtracy

# material
mtllib CoffeeCupMed.mtl
usemtl palette

# normals
vn -1 0 0
vn 1 0 0
vn 0 0 1
vn 0 0 -1
vn 0 -1 0
vn 0 1 0

# texcoords
vt 0.00195313 0.5
vt 0.373047 0.5
vt 0.619141 0.5
vt 0.958984 0.5

# verts
v -4 6 4.5
v -4 6 -3.5
v -4 9 4.5
v -4 9 -3.5
v -4 11 4.5
v -4 11 -3.5
v -4 12 4.5
v -4 12 -3.5
v -3 3 3.5
v -3 3 -2.5
v -3 6 3.5
v -3 6 -2.5
v -3 9 3.5
v -3 9 -2.5
v -3 11 3.5
v -3 11 -2.5
v -3 12 3.5
v -3 12 -2.5
v -3 13 3.5
v -3 13 -2.5
v 2 4 2.5
v 2 4 -1.5
v 2 6 2.5
v 2 6 -1.5
v 2 7 2.5
v 2 7 -1.5
v 2 9 2.5
v 2 9 -1.5
v 2 11 2.5
v 2 11 -1.5
v -2 4 2.5
v -2 4 -1.5
v -2 6 2.5
v -2 6 -1.5
v -2 7 2.5
v -2 7 -1.5
v -2 9 2.5
v -2 9 -1.5
v -2 11 2.5
v -2 11 -1.5
v 3 3 3.5
v 3 3 -2.5
v 3 6 3.5
v 3 6 -2.5
v 3 9 3.5
v 3 9 -2.5
v 3 11 3.5
v 3 11 -2.5
v 3 12 3.5
v 3 12 -2.5
v 3 13 3.5
v 3 13 -2.5
v 4 6 4.5
v 4 6 -3.5
v 4 9 4.5
v 4 9 -3.5
v 4 11 4.5
v 4 11 -3.5
v 4 12 4.5
v 4 12 -3.5
v -4 6 4.5
v -4 9 4.5
v -4 11 4.5
v -4 12 4.5
v 4 6 4.5
v 4 9 4.5
v 4 11 4.5
v 4 12 4.5
v -3 3 3.5
v -3 6 3.5
v -3 9 3.5
v -3 11 3.5
v -3 12 3.5
v -3 13 3.5
v 3 3 3.5
v 3 6 3.5
v 3 9 3.5
v 3 11 3.5
v 3 12 3.5
v 3 13 3.5
v -2 4 -1.5
v -2 6 -1.5
v -2 7 -1.5
v -2 9 -1.5
v -2 11 -1.5
v 2 4 -1.5
v 2 6 -1.5
v 2 7 -1.5
v 2 9 -1.5
v 2 11 -1.5
v -2 4 2.5
v -2 6 2.5
v -2 7 2.5
v -2 9 2.5
v -2 11 2.5
v 2 4 2.5
v 2 6 2.5
v 2 7 2.5
v 2 9 2.5
v 2 11 2.5
v -3 3 -2.5
v -3 6 -2.5
v -3 9 -2.5
v -3 11 -2.5
v -3 12 -2.5
v -3 13 -2.5
v 3 3 -2.5
v 3 6 -2.5
v 3 9 -2.5
v 3 11 -2.5
v 3 12 -2.5
v 3 13 -2.5
v -4 6 -3.5
v -4 9 -3.5
v -4 11 -3.5
v -4 12 -3.5
v 4 6 -3.5
v 4 9 -3.5
v 4 11 -3.5
v 4 12 -3.5
v -3 3 3.5
v 3 3 3.5
v -3 3 -2.5
v 3 3 -2.5
v -4 6 4.5
v 4 6 4.5
v -3 6 3.5
v 3 6 3.5
v -3 6 -2.5
v 3 6 -2.5
v -4 6 -3.5
v 4 6 -3.5
v -4 11 4.5
v 4 11 4.5
v -3 11 3.5
v 3 11 3.5
v -2 11 2.5
v 2 11 2.5
v -2 11 -1.5
v 2 11 -1.5
v -3 11 -2.5
v 3 11 -2.5
v -4 11 -3.5
v 4 11 -3.5
v -2 4 2.5
v 2 4 2.5
v -2 4 -1.5
v 2 4 -1.5
v -4 9 4.5
v 4 9 4.5
v -3 9 3.5
v 3 9 3.5
v -3 9 -2.5
v 3 9 -2.5
v -4 9 -3.5
v 4 9 -3.5
v -4 12 4.5
v 4 12 4.5
v -3 12 3.5
v 3 12 3.5
v -3 12 -2.5
v 3 12 -2.5
v -4 12 -3.5
v 4 12 -3.5
v -3 13 3.5
v 3 13 3.5
v -3 13 -2.5
v 3 13 -2.5

# faces
f 3/2/1 2/2/1 1/2/1
f 4/2/1 2/2/1 3/2/1
f 7/4/1 6/4/1 5/4/1
f 8/4/1 6/4/1 7/4/1
f 11/3/1 10/3/1 9/3/1
f 12/3/1 10/3/1 11/3/1
f 15/3/1 14/3/1 13/3/1
f 16/3/1 14/3/1 15/3/1
f 19/4/1 18/4/1 17/4/1
f 20/4/1 18/4/1 19/4/1
f 23/3/1 22/3/1 21/3/1
f 24/3/1 22/3/1 23/3/1
f 25/1/1 24/1/1 23/1/1
f 26/1/1 24/1/1 25/1/1
f 27/2/1 26/2/1 25/2/1
f 28/2/1 26/2/1 27/2/1
f 29/3/1 28/3/1 27/3/1
f 30/3/1 28/3/1 29/3/1
f 31/3/2 32/3/2 33/3/2
f 33/3/2 32/3/2 34/3/2
f 33/1/2 34/1/2 35/1/2
f 35/1/2 34/1/2 36/1/2
f 35/2/2 36/2/2 37/2/2
f 37/2/2 36/2/2 38/2/2
f 37/3/2 38/3/2 39/3/2
f 39/3/2 38/3/2 40/3/2
f 41/3/2 42/3/2 43/3/2
f 43/3/2 42/3/2 44/3/2
f 45/3/2 46/3/2 47/3/2
f 47/3/2 46/3/2 48/3/2
f 49/4/2 50/4/2 51/4/2
f 51/4/2 50/4/2 52/4/2
f 53/2/2 54/2/2 55/2/2
f 55/2/2 54/2/2 56/2/2
f 57/4/2 58/4/2 59/4/2
f 59/4/2 58/4/2 60/4/2
f 65/2/3 62/2/3 61/2/3
f 66/2/3 62/2/3 65/2/3
f 67/4/3 64/4/3 63/4/3
f 68/4/3 64/4/3 67/4/3
f 75/3/3 70/3/3 69/3/3
f 76/3/3 70/3/3 75/3/3
f 77/3/3 72/3/3 71/3/3
f 78/3/3 72/3/3 77/3/3
f 79/4/3 74/4/3 73/4/3
f 80/4/3 74/4/3 79/4/3
f 86/3/3 82/3/3 81/3/3
f 87/1/3 83/1/3 82/1/3
f 87/3/3 82/3/3 86/3/3
f 88/2/3 84/2/3 83/2/3
f 88/1/3 83/1/3 87/1/3
f 89/3/3 85/3/3 84/3/3
f 89/2/3 84/2/3 88/2/3
f 90/3/3 85/3/3 89/3/3
f 91/3/4 92/3/4 96/3/4
f 92/1/4 93/1/4 97/1/4
f 96/3/4 92/3/4 97/3/4
f 93/2/4 94/2/4 98/2/4
f 97/1/4 93/1/4 98/1/4
f 94/3/4 95/3/4 99/3/4
f 98/2/4 94/2/4 99/2/4
f 99/3/4 95/3/4 100/3/4
f 101/3/4 102/3/4 107/3/4
f 107/3/4 102/3/4 108/3/4
f 103/3/4 104/3/4 109/3/4
f 109/3/4 104/3/4 110/3/4
f 105/4/4 106/4/4 111/4/4
f 111/4/4 106/4/4 112/4/4
f 113/2/4 114/2/4 117/2/4
f 117/2/4 114/2/4 118/2/4
f 115/4/4 116/4/4 119/4/4
f 119/4/4 116/4/4 120/4/4
f 123/3/5 122/3/5 121/3/5
f 124/3/5 122/3/5 123/3/5
f 127/2/5 126/2/5 125/2/5
f 128/2/5 126/2/5 127/2/5
f 129/2/5 127/2/5 125/2/5
f 130/2/5 126/2/5 128/2/5
f 131/2/5 129/2/5 125/2/5
f 131/2/5 130/2/5 129/2/5
f 132/2/5 126/2/5 130/2/5
f 132/2/5 130/2/5 131/2/5
f 135/4/5 134/4/5 133/4/5
f 136/4/5 134/4/5 135/4/5
f 139/4/5 138/4/5 137/4/5
f 140/4/5 138/4/5 139/4/5
f 141/4/5 135/4/5 133/4/5
f 142/4/5 134/4/5 136/4/5
f 143/4/5 141/4/5 133/4/5
f 143/4/5 142/4/5 141/4/5
f 144/4/5 134/4/5 142/4/5
f 144/4/5 142/4/5 143/4/5
f 145/3/6 146/3/6 147/3/6
f 147/3/6 146/3/6 148/3/6
f 149/2/6 150/2/6 151/2/6
f 151/2/6 150/2/6 152/2/6
f 149/2/6 151/2/6 153/2/6
f 152/2/6 150/2/6 154/2/6
f 149/2/6 153/2/6 155/2/6
f 153/2/6 154/2/6 155/2/6
f 154/2/6 150/2/6 156/2/6
f 155/2/6 154/2/6 156/2/6
f 157/4/6 158/4/6 159/4/6
f 159/4/6 158/4/6 160/4/6
f 157/4/6 159/4/6 161/4/6
f 160/4/6 158/4/6 162/4/6
f 157/4/6 161/4/6 163/4/6
f 161/4/6 162/4/6 163/4/6
f 162/4/6 158/4/6 164/4/6
f 163/4/6 162/4/6 164/4/6
f 165/4/6 166/4/6 167/4/6
f 167/4/6 166/4/6 168/4/6
